3 Process AC:NH data | OII Gaming Study
…
# Hours of estimated play
ac <- ac %>% 
  mutate(
    active_play = active_play_hours + (active_play_minutes / 60)
  )

3.2.2 Checking

Player IDs

count(ac, player_id, sort = T)

## # A tibble: 5,987 x 2
##    player_id              n
##    <chr>              <int>
##  1 ""                    13
##  2 "7dadc6e88bc0b5b8"     3
##  3 "33ec57527b06af7b"     2
##  4 "48bb7bafae2e5c44"     2
##  5 "49f5299432fef738"     2
##  6 "5b9d217b3cbb39fa"     2
##  7 "677ca59a6ed1e5a8"     2
##  8 "7092634f86aa0992"     2
##  9 "842b41d5e20f2922"     2
## 10 "8bd8d7292b3a05b5"     2
## # … with 5,977 more rows
…
